Introduction to rbin
…
Dummy Variables

bins <- rbin_manual(mbank, y, age, c(29, 31, 34, 36, 39, 42, 46, 51, 56))
rbin_create(mbank, age, bins)
#> # A tibble: 4,521 x 26
#>      age job   marital education default balance housing loan  contact
#>    <int> <fct> <fct>   <fct>     <fct>     <dbl> <fct>   <fct> <fct>  
#>  1    34 tech~ married tertiary  no          297 yes     no    cellul~
#>  2    49 serv~ married secondary no          180 yes     yes   unknown
#>  3    38 admi~ single  secondary no          262 no      no    cellul~
#>  4    47 serv~ married secondary no          367 yes     no    cellul~
#>  5    51 self~ single  secondary no         1640 yes     no    unknown
#>  6    40 unem~ married secondary no         3382 yes     no    unknown
#>  7    58 reti~ married secondary no         1227 no      no    cellul~
#>  8    32 unem~ married primary   no          309 yes     no    teleph~
#>  9    46 blue~ married secondary no          922 yes     no    teleph~
#> 10    32 serv~ married tertiary  no            0 no      no    cellul~
#> # ... with 4,511 more rows, and 17 more variables: day <int>, month <fct>,
#> #   duration <int>, campaign <int>, pdays <int>, previous <int>,
#> #   poutcome <fct>, y <fct>, `age_<_31` <dbl>, `age_<_34` <dbl>,
#> #   `age_<_36` <dbl>, `age_<_39` <dbl>, `age_<_42` <dbl>,
#> #   `age_<_46` <dbl>, `age_<_51` <dbl>, `age_<_56` <dbl>,
#> #   `age_>=_56` <dbl>
…
Create Bins

upper <- c("secondary", "tertiary")
out <- rbin_factor_combine(mbank, education, upper, "upper")
rbin_factor_create(out, education)
#> # A tibble: 4,521 x 19
#>      age job   marital default balance housing loan  contact   day month
#>    <int> <fct> <fct>   <fct>     <dbl> <fct>   <fct> <fct>   <int> <fct>
#>  1    34 tech~ married no          297 yes     no    cellul~    29 jan  
#>  2    49 serv~ married no          180 yes     yes   unknown     2 jun  
#>  3    38 admi~ single  no          262 no      no    cellul~     3 feb  
#>  4    47 serv~ married no          367 yes     no    cellul~    12 may  
#>  5    51 self~ single  no         1640 yes     no    unknown    15 may  
#>  6    40 unem~ married no         3382 yes     no    unknown    14 may  
#>  7    58 reti~ married no         1227 no      no    cellul~    14 aug  
#>  8    32 unem~ married no          309 yes     no    teleph~    13 may  
#>  9    46 blue~ married no          922 yes     no    teleph~    18 nov  
#> 10    32 serv~ married no            0 no      no    cellul~    21 nov  
#> # ... with 4,511 more rows, and 9 more variables: duration <int>,
#> #   campaign <int>, pdays <int>, previous <int>, poutcome <fct>, y <fct>,
#> #   education <fct>, education_unknown <dbl>, education_upper <dbl>
…
